; Engine configuration file.
; It's best edited using the editor UI and not directly,
; since the parameters that go here are not all obvious.
;
; Format:
;   [section] ; section goes between []
;   param=value ; assign values to parameters

config_version=4

_global_script_classes=[ {
"base": "",
"class": "Map",
"language": "NativeScript",
"path": "res://MapTest.gdns"
} ]
_global_script_class_icons={
"Map": ""
}

[application]

config/name="Test"
run/main_scene="res://Node.tscn"
config/icon="res://icon.png"

[autoload]

Map="*res://MapTest.gdns"

[gdnative]

singletons=[ "res://MapLib.gdnlib" ]

[rendering]

environment/default_environment="res://default_env.tres"
